<?xml version="1.0" encoding="utf-8"?>
<!-- Generator: Adobe Illustrator 16.0.0, SVG Export Plug-In . SVG Version: 6.00 Build 0)  -->
<!DOCTYPE svg PUBLIC "-//W3C//DTD SVG 1.1//EN" "http://www.w3.org/Graphics/SVG/1.1/DTD/svg11.dtd">
<svg version="1.1" id="Calque_1" xmlns="http://www.w3.org/2000/svg" xmlns:xlink="http://www.w3.org/1999/xlink" x="0px" y="0px"
	 width="50.834px" height="65px" viewBox="0 0 50.834 65" enable-background="new 0 0 50.834 65" xml:space="preserve">
<g>
	<path fill="#1F304A" d="M13.934,26.045c0.353,4.622,2.19,2.63,2.569,4.655c0.631,3.366,3.611,5.8,5.466,6.641
		c1.081,0.491,2.196,0.737,3.368,0.756v0.001c0.004,0,0.008,0,0.012,0s0.008,0,0.012,0v-0.001c1.172-0.019,2.287-0.265,3.371-0.756
		c1.854-0.841,4.834-3.275,5.465-6.641c0.379-2.025,2.217-0.033,2.568-4.655c0-1.842-1.004-2.3-1.004-2.3s0.512-2.726,0.711-4.823
		c0.246-2.614-1.525-9.367-10.984-9.367c-0.043,0-0.082,0.002-0.121,0.002c-0.002,0-0.004,0-0.006,0v0c-0.004,0-0.008,0-0.01,0
		c-0.006,0-0.01,0-0.014,0v0h-0.004c-0.041,0-0.078-0.002-0.121-0.002c-9.459,0-11.231,6.753-10.984,9.367
		c0.2,2.098,0.71,4.823,0.71,4.823S13.934,24.203,13.934,26.045z"/>
	<path fill="#1F304A" d="M46.808,48.73c-4.771-2.428-11.686-5.459-12.018-5.566c-0.004-0.002-0.008-0.002-0.012-0.002
		c-0.193-0.07-0.402-0.109-0.621-0.109c-0.811,0-1.498,0.52-1.752,1.244c-0.002,0-0.004-0.002-0.006-0.002
		c-1.23,2.969-3.494,8.258-4.896,10.809l-0.34-7.152c0,0,2.111-4.477,2.342-4.887c0.543-0.963,0.053-1.779-0.965-1.779l0,0h-6.244
		l0,0c-1.02,0-1.508,0.816-0.965,1.779c0.23,0.41,2.34,4.887,2.34,4.887l-0.338,7.15c-1.406-2.551-3.666-7.839-4.898-10.807
		c-0.001,0-0.002,0.002-0.004,0.002c-0.255-0.725-0.941-1.244-1.754-1.244c-0.217,0-0.426,0.039-0.62,0.109
		c-0.003,0-0.006,0-0.011,0.002c-0.331,0.107-7.247,3.139-12.018,5.566c-2.144,1.09-3.438,2.445-3.438,3.873v11.23h49.652v-11.23
		C50.243,51.176,48.95,49.82,46.808,48.73z"/>
</g>
<path fill="#42ACDF" d="M27.503,55.104l-0.34-7.152c0,0,2.111-4.477,2.342-4.887c0.543-0.963,0.053-1.779-0.965-1.779h-6.244
	c-1.02,0-1.508,0.816-0.965,1.779c0.23,0.41,2.34,4.887,2.34,4.887l-0.338,7.152l2.084,3.57L27.503,55.104z"/>
<g>
	<g>
		<polygon fill-rule="evenodd" clip-rule="evenodd" fill="#42ACDF" points="24.243,10.333 15.171,15.232 9.002,10.61 15.401,11.475 
			15.75,5.274 21.101,8.368 23.89,2.531 		"/>
	</g>
	
		<ellipse transform="matrix(0.4745 0.8802 -0.8802 0.4745 12.4538 -11.1125)" fill-rule="evenodd" clip-rule="evenodd" fill="#42ACDF" cx="15.535" cy="4.875" rx="0.454" ry="0.477"/>
	
		<ellipse transform="matrix(0.475 0.88 -0.88 0.475 14.305 -19.7139)" fill-rule="evenodd" clip-rule="evenodd" fill="#42ACDF" cx="23.674" cy="2.132" rx="0.453" ry="0.478"/>
	
		<ellipse transform="matrix(0.4756 0.8797 -0.8797 0.4756 13.5897 -2.3741)" fill-rule="evenodd" clip-rule="evenodd" fill="#42ACDF" cx="8.786" cy="10.211" rx="0.454" ry="0.477"/>
</g>
</svg>
