<?xml version="1.0" encoding="utf-8"?>
<!-- Generator: Adobe Illustrator 16.0.0, SVG Export Plug-In . SVG Version: 6.00 Build 0)  -->
<!DOCTYPE svg PUBLIC "-//W3C//DTD SVG 1.1//EN" "http://www.w3.org/Graphics/SVG/1.1/DTD/svg11.dtd">
<svg version="1.1" id="Calque_1" xmlns="http://www.w3.org/2000/svg" xmlns:xlink="http://www.w3.org/1999/xlink" x="0px" y="0px"
	 width="50.834px" height="59.167px" viewBox="0 0 50.834 59.167" enable-background="new 0 0 50.834 59.167" xml:space="preserve">
<g>
	<path fill="#FFFFFF" stroke="#1F304A" stroke-width="0.25" stroke-miterlimit="10" d="M13.833,20.246
		c0.353,4.622,2.189,2.63,2.569,4.655c0.63,3.366,3.61,5.8,5.466,6.641c1.082,0.491,2.197,0.737,3.369,0.756v0.001
		c0.004,0,0.008,0,0.012,0s0.008,0,0.012,0v-0.001c1.172-0.019,2.287-0.265,3.371-0.756c1.853-0.841,4.833-3.275,5.464-6.641
		c0.379-2.025,2.217-0.033,2.568-4.655c0-1.842-1.004-2.3-1.004-2.3s0.512-2.726,0.711-4.823c0.246-2.614-1.525-9.367-10.983-9.367
		c-0.043,0-0.082,0.002-0.121,0.002c-0.002,0-0.004,0-0.006,0v0c-0.004,0-0.008,0-0.01,0c-0.006,0-0.01,0-0.014,0v0h-0.004
		c-0.041,0-0.078-0.002-0.121-0.002c-9.459,0-11.232,6.753-10.986,9.367c0.201,2.098,0.711,4.823,0.711,4.823
		S13.833,18.404,13.833,20.246z"/>
	<path fill="#FFFFFF" stroke="#1F304A" stroke-width="0.25" stroke-miterlimit="10" d="M46.707,42.932
		c-3.26-1.659-16.738-7.807-21.458-7.869c-4.312-0.057-17.847,6.101-21.321,7.869c-2.144,1.09-3.438,2.445-3.438,3.873v11.23h49.652
		v-11.23C50.143,45.377,48.85,44.022,46.707,42.932z"/>
</g>
<path fill="#FFFFFF" stroke="#1F304A" stroke-width="0.25" stroke-miterlimit="10" d="M40.176,20.991
	c0-2.08-0.975-3.929-2.491-5.122v-1.687c0-6.916-5.625-12.54-12.54-12.54s-12.54,5.625-12.54,12.54v1.235
	c-1.882,1.143-3.139,3.212-3.139,5.574c0,3.602,3.891,5.646,7.492,5.646l-0.973-12.165c-0.463,0-0.916,0.05-1.353,0.142v-0.433
	c0-5.797,4.715-10.512,10.512-10.512s10.514,4.715,10.514,10.512v0.605c-0.63-0.203-1.303-0.314-2.001-0.314L33.32,27.081
	c0.424,0,1.17,0.385,1.569,0.308c-0.66,1.403-2.166,3.521-5.358,4.128c-0.208-0.232-0.507-0.381-0.844-0.381h-2.034
	c-0.629,0-1.139,0.511-1.139,1.141c0,0.627,0.51,1.137,1.139,1.137h2.034c0.488,0,0.901-0.308,1.064-0.739
	c4.487-0.844,6.105-4.33,6.584-5.746C38.6,25.908,40.176,23.636,40.176,20.991L40.176,20.991z M40.176,20.991"/>
<g>
	<defs>
		<rect id="SVGID_1_" x="9.903" y="1.642" width="30.826" height="31.861"/>
	</defs>
	<clipPath id="SVGID_2_">
		<use xlink:href="#SVGID_1_"  overflow="visible"/>
	</clipPath>
</g>
</svg>
