<?xml version="1.0" encoding="utf-8"?>
<!-- Generator: Adobe Illustrator 19.0.0, SVG Export Plug-In . SVG Version: 6.00 Build 0)  -->
<!DOCTYPE svg PUBLIC "-//W3C//DTD SVG 1.1//EN" "http://www.w3.org/Graphics/SVG/1.1/DTD/svg11.dtd">
<svg version="1.1" id="Calque_1" xmlns="http://www.w3.org/2000/svg" xmlns:xlink="http://www.w3.org/1999/xlink" x="0px" y="0px"
	 viewBox="0 0 111.2 81.4" enable-background="new 0 0 111.2 81.4" xml:space="preserve">
<g id="XMLID_25_">
	<g id="XMLID_49_">
		<g id="XMLID_50_">
			<g id="XMLID_58_">
				<path id="XMLID_61_" fill="#68B69C" d="M24.7,58.6c0-0.1,0.2-0.2,0.3-0.2s0.2,0.2,0.2,0.3l-4.7,21.6c-0.1,0.5-0.6,0.7-1,0.6
					c-0.5-0.1-0.7-0.6-0.6-1L24.7,58.6z"/>
			</g>
		</g>
	</g>
	<g id="XMLID_27_">
		<path id="XMLID_45_" fill="#FFFFFF" d="M0,63.1c0-0.6,0.5-1.1,1.1-1.1h7c2.2,0,3.9,0.6,5,1.7c0.8,0.8,1.2,1.8,1.2,3v0.1
			c0,2.5-1.5,3.7-3,4.4c2.3,0.7,4.1,2,4.1,4.6v0.1c0,3.3-2.7,5.2-6.9,5.2H1.1C0.5,81.1,0,80.6,0,80V63.1z M7.7,70.5
			c2.6,0,4.4-1.2,4.4-3.4v-0.1c0-1.9-1.5-3.1-4.2-3.1H2.1v6.5H7.7z M8.5,79.1c2.9,0,4.7-1.3,4.7-3.4v-0.1c0-2.1-1.7-3.3-5-3.3h-6
			v6.7H8.5z"/>
		<path id="XMLID_43_" fill="#FFFFFF" d="M26.4,71.6L26.4,71.6c0-5.3,3.8-9.9,9.5-9.9c2.9,0,4.8,0.8,6.5,2c0.2,0.2,0.4,0.5,0.4,0.9
			c0,0.6-0.5,1.1-1.1,1.1c-0.2,0-0.5-0.1-0.7-0.3c-1.4-1-2.9-1.7-5.3-1.7c-4.2,0-7.2,3.6-7.2,7.8v0.1c0,4.5,2.9,7.9,7.5,7.9
			c2.2,0,4.2-0.8,5.5-1.9v-4.7h-4.9c-0.5,0-1-0.4-1-1c0-0.5,0.5-1,1-1h5.9c0.6,0,1.1,0.5,1.1,1.1v5.8c0,0.5-0.2,1-0.7,1.3
			c-1.7,1.3-4.1,2.3-6.9,2.3C30.1,81.4,26.4,77,26.4,71.6z"/>
		<path id="XMLID_41_" fill="#FFFFFF" d="M48.2,78.7c-0.1-0.1-0.3-0.3-0.3-0.5c0-0.4,0.3-0.7,0.7-0.7c0.2,0,0.4,0.1,0.5,0.2
			c1.9,1.7,3.8,2.5,6.4,2.5c2.9,0,4.8-1.6,4.8-3.8v-0.1c0-2-1.1-3.2-5.4-4c-4.6-0.9-6.4-2.5-6.4-5.3v-0.1c0-2.8,2.6-5,6.1-5
			c2.6,0,4.3,0.7,6.1,2c0.1,0.1,0.3,0.3,0.3,0.6c0,0.4-0.3,0.7-0.7,0.7c-0.2,0-0.3-0.1-0.5-0.2c-1.7-1.3-3.3-1.8-5.2-1.8
			c-2.8,0-4.6,1.6-4.6,3.6v0.1c0,2,1,3.2,5.5,4.2c4.4,0.9,6.2,2.5,6.2,5.2v0.1c0,3.1-2.6,5.2-6.3,5.2C52.6,81.3,50.4,80.4,48.2,78.7
			z"/>
		<path id="XMLID_37_" fill="#FFFFFF" d="M71,63.4h-6.1c-0.4,0-0.7-0.3-0.7-0.7c0-0.4,0.3-0.7,0.7-0.7h13.6c0.4,0,0.7,0.3,0.7,0.7
			c0,0.4-0.3,0.7-0.7,0.7h-6.1v17.1c0,0.4-0.3,0.7-0.7,0.7c-0.4,0-0.7-0.3-0.7-0.7V63.4z"/>
		<path id="XMLID_31_" fill="#FFFFFF" d="M78.6,80.2l8.2-17.7c0.2-0.4,0.5-0.7,1-0.7h0.1c0.5,0,0.8,0.3,1,0.7l8.1,17.6
			c0.1,0.1,0.1,0.2,0.1,0.3c0,0.3-0.3,0.7-0.7,0.7c-0.3,0-0.5-0.3-0.7-0.5l-2.2-4.9H82.1l-2.2,4.9c-0.1,0.3-0.3,0.5-0.7,0.5
			c-0.4,0-0.7-0.3-0.7-0.7C78.5,80.4,78.5,80.3,78.6,80.2z M92.7,74.5l-5-11l-5,11H92.7z"/>
		<path id="XMLID_29_" fill="#FFFFFF" d="M103,63.4h-6.1c-0.4,0-0.7-0.3-0.7-0.7c0-0.4,0.3-0.7,0.7-0.7h13.6c0.4,0,0.7,0.3,0.7,0.7
			c0,0.4-0.3,0.7-0.7,0.7h-6.1v17.1c0,0.4-0.3,0.7-0.7,0.7s-0.7-0.3-0.7-0.7V63.4z"/>
	</g>
</g>
<g id="XMLID_11_">
	<path id="XMLID_26_" fill="#FFFFFF" d="M39.6,48.3c-4.3,0-7.8-3.5-7.8-7.8V9c0-4.3,3.5-7.8,7.8-7.8h31.6c4.3,0,7.8,3.5,7.8,7.8
		v31.6c0,4.3-3.5,7.8-7.8,7.8H39.6z"/>
	<path id="XMLID_22_" fill="#2F518F" d="M71.1,2.3c3.7,0,6.6,3,6.6,6.6v31.6c0,3.7-3,6.6-6.6,6.6H39.6c-3.7,0-6.6-3-6.6-6.6V9
		c0-3.7,3-6.6,6.6-6.6H71.1 M71.1,0H39.6c-4.9,0-9,4-9,9v31.6c0,4.9,4,9,9,9h31.6c4.9,0,9-4,9-9V9C80.1,4,76.1,0,71.1,0L71.1,0z"/>
</g>
<linearGradient id="XMLID_67_" gradientUnits="userSpaceOnUse" x1="94.6002" y1="5.2299" x2="31.3502" y2="33.7299">
	<stop  offset="0" style="stop-color:#67B59B"/>
	<stop  offset="1" style="stop-color:#65A7DD"/>
</linearGradient>
<path id="XMLID_13_" fill="url(#XMLID_67_)" d="M80.1,35.6v-17c-2.9-2.4-6.9-4.6-12-5.4l-0.2-0.2c-5-4.1-11.4-6.4-17.9-6.6l-1.6,0
	C42,6.4,36.1,7.8,30.6,10.2v30.3c0,3.5,2,6.5,5,8c2.2-1.8,4.5-3.7,7-5.2l0,0l0,0c8.2-5.7,17.5-8.6,27.6-8.6c1.1,0,2.1,0,3.2,0.1
	C75.7,34.9,77.9,35.2,80.1,35.6z"/>
<g id="XMLID_71_">
	<g id="XMLID_73_">
		<g id="XMLID_75_">
			<path id="XMLID_7_" fill="#FFFFFF" d="M50.3,13.4c-1.4,0.2-2.8,1.4-2.3,3.2c0.6,1.9,1.2,2.9,3.3,3.7c2.2,0.8,5.3,0.4,6.3-0.2
				c0.2-0.1,2.1-1.6,2.1-1.6l-0.7-2.7l-1.9-1.7"/>
			<path id="XMLID_81_" fill="#2F518F" d="M66.7,17.6c-3.5-2.7-9.7-6.1-15.7-6.1c-3.4,0-6.6,0.8-8.7,2.3c-0.1,0,0,0.2,0.1,0.1
				c2.6-0.7,4.4-0.6,5.4,0.5c-0.7,3,0.7,4.3,1.6,5c0,0,0,0,0,0c-0.9-1.2-1.1-2.3-1.1-3.3c0-1,0.8-1.6,1.4-1.6
				c1.1-0.1,2.4,0.3,2.9,0.9c0,0,0,0,0,0c-0.1,0.2-0.1,0.5-0.1,0.8c0,1.3,1,2.2,2.2,2.2c1.2,0,2.1-1,2.2-2.2v0
				c1.9,0.2,1.9,1.2,1.8,1.8c-0.1,0.5-0.6,2.3-3.3,3c-2.1,0.4-4.2,0.6-6.3,0.7c-2,0.1-4-0.1-6,0.1c-0.1,0-0.1,0.1-0.2,0.1
				c-0.2,0-0.3,0-0.5,0.1c-0.1,0-0.1,0.2,0,0.2c0.7,0.2,1.4,0.2,2,0.5c0.6,0.3,1.2,0.8,1.8,1.1c0.9,0.5,1.7,1,2.7,1.3
				c2.2,0.5,4.3-0.4,6.1-1.6c1-0.7,1.9-1.5,3-2c0.8-0.4,1.6-0.6,2.3-1.1c0.5-0.4,0.9-1.1,0.9-1.8c0-0.3-0.1-0.6-0.3-0.9
				c2.5,0.1,4.2,0.4,5.5,0.8C67.3,18.5,67.3,18,66.7,17.6z"/>
			<path id="XMLID_4_" fill="#FFFFFF" d="M53.8,14.9c-0.9,0-1.2-0.3-1.2-0.7c0-0.4,0.3-0.7,1.2-0.7c0.9,0,1.2,0.3,1.2,0.7
				C55,14.6,54.7,14.9,53.8,14.9z"/>
		</g>
		<path id="XMLID_3_" fill="#2F518F" d="M38.2,48.4c4.6-4.2,4.2-3.9,7.9-7.6c0.3,2.1,0.2,2,0.2,2c3.8-4.1,7.4-9.6,11.4-13l-0.3,3.2
			l12.1-10L68,26.1l6.8-6.4l-8.8,3l3.4,0.2l0,0l-10,6l0.2-2.2c-2.8,1.9-8.1,6.7-12,11.9c-0.3-2.5-0.6-3.6-0.6-3.6
			c-2.8,2.7-6.2,8.5-11.9,12.6"/>
	</g>
</g>
<g id="XMLID_9_">
	<path id="XMLID_12_" fill="#2F518F" d="M30.6,9v2c5.4-2.6,11.4-4,18-4.2l1.6,0c6.3,0.2,12.5,2.4,17.4,6.4l0.4,0.3
		c4.9,0.8,9,2.8,12.1,5.5v-3.1c-3-1.9-6.7-3.6-11.2-4.3c-4.7-3.8-10.5-6.1-16.5-6.7l0,0c0,0-0.1,0-0.1,0c-0.7-0.1-1.4-0.1-2-0.1v0
		h-0.7c-1,0-2,0-3,0.1c-6.4,0.1-11.3,0.7-15.6,1.7c-0.1,0.5-0.2,1-0.3,1.5c0.5,0,1,0,1.5-0.1c-0.5,0.2-1,0.4-1.5,0.6
		C30.6,8.7,30.6,8.8,30.6,9z"/>
	<path id="XMLID_14_" fill="#2F518F" d="M42.4,42.2c-2.8,1.7-5.2,3.7-7.7,5.8c1,0.6,2.1,1.1,3.3,1.3c0.1-0.3,0.2-0.6,0.2-0.9
		c2.2-1.9,4.6-3.9,7.2-5c0.1,0.7,0.3,1.5,0.8,1.2c2.3-1.4,4.2-3.4,6.6-4.8c1-0.6,2.1-1,3.2-1.5c4.4-1.3,9-2.1,13.9-2.1
		c4,0,7.4,0.5,10.3,1.2v-3.2C70.8,32.6,56.3,32.5,42.4,42.2z"/>
</g>
</svg>
