<?xml version="1.0" encoding="utf-8"?>
<!-- Generator: Adobe Illustrator 16.0.0, SVG Export Plug-In . SVG Version: 6.00 Build 0)  -->
<!DOCTYPE svg PUBLIC "-//W3C//DTD SVG 1.1//EN" "http://www.w3.org/Graphics/SVG/1.1/DTD/svg11.dtd">
<svg version="1.1" id="Calque_1" xmlns="http://www.w3.org/2000/svg" xmlns:xlink="http://www.w3.org/1999/xlink" x="0px" y="0px"
	 width="283.465px" height="283.465px" viewBox="0 0 283.465 283.465" enable-background="new 0 0 283.465 283.465"
	 xml:space="preserve">
<g>
	<path fill="#3ca8e3" d="M118.929,45.26L68.346,94.745l29.976,30.644l50.583-49.483c8.462-8.279,8.611-21.848,0.333-30.31
		C140.96,37.132,127.391,36.983,118.929,45.26z"/>
	<path fill="#3ca8e3" d="M178.791,70.262l-17.737,17.351l-32.848,32.133l-17.734,17.351l29.978,30.644l17.732-17.351l32.849-32.132
		l17.737-17.352c8.46-8.279,8.609-21.847,0.331-30.309C200.824,62.135,187.252,61.983,178.791,70.262z"/>
</g>
<g>
	<path fill="#3ca8e3" d="M23.018,200.432h13.761c1.715,0,3.309,0.205,4.783,0.615c1.472,0.412,2.741,1.017,3.804,1.818
		s1.902,1.828,2.517,3.076c0.615,1.252,0.923,2.714,0.923,4.393c0,2.274-0.635,4.131-1.902,5.565
		c-1.268,1.437-2.909,2.489-4.923,3.16v0.112c1.193,0.075,2.312,0.384,3.356,0.923c1.044,0.542,1.948,1.251,2.713,2.127
		c0.764,0.876,1.371,1.894,1.818,3.049c0.447,1.156,0.671,2.404,0.671,3.748c0,1.79-0.364,3.366-1.09,4.727
		c-0.728,1.362-1.725,2.51-2.993,3.44c-1.268,0.933-2.741,1.642-4.419,2.126c-1.679,0.484-3.488,0.728-5.427,0.728H23.018V200.432z
		 M28.388,216.879h7.328c1.007,0,1.958-0.103,2.853-0.307c0.895-0.206,1.678-0.55,2.349-1.036c0.671-0.484,1.203-1.1,1.595-1.845
		c0.392-0.746,0.587-1.66,0.587-2.743c0-1.565-0.504-2.926-1.511-4.084c-1.007-1.155-2.592-1.733-4.754-1.733h-8.447V216.879z
		 M28.388,235.338h7.888c0.82,0,1.724-0.084,2.713-0.251c0.988-0.167,1.911-0.502,2.77-1.006c0.857-0.503,1.584-1.185,2.182-2.042
		c0.596-0.856,0.895-1.993,0.895-3.413c0-2.349-0.764-4.11-2.293-5.285c-1.53-1.176-3.6-1.764-6.21-1.764h-7.943V235.338z"/>
	<path fill="#3ca8e3" d="M64.582,204.012c0-1.008,0.363-1.874,1.091-2.6c0.727-0.728,1.594-1.093,2.601-1.093
		c1.008,0,1.875,0.365,2.602,1.093c0.727,0.726,1.09,1.592,1.09,2.6s-0.364,1.876-1.09,2.602c-0.728,0.728-1.594,1.091-2.602,1.091
		c-1.006,0-1.874-0.363-2.601-1.091C64.945,205.888,64.582,205.02,64.582,204.012z M65.756,213.522h5.035v26.517h-5.035V213.522z"/>
	<path fill="#3ca8e3" d="M113.753,239.814c0,2.016-0.346,3.85-1.035,5.51c-0.69,1.66-1.669,3.095-2.937,4.31
		c-1.268,1.209-2.797,2.151-4.587,2.823c-1.791,0.671-3.768,1.007-5.931,1.007c-2.536,0-4.857-0.354-6.964-1.062
		c-2.108-0.709-4.112-1.939-6.014-3.693l3.412-4.251c1.306,1.417,2.722,2.49,4.252,3.219c1.529,0.725,3.263,1.088,5.202,1.088
		c1.864,0,3.413-0.271,4.644-0.812c1.231-0.54,2.209-1.24,2.937-2.096c0.728-0.86,1.24-1.837,1.538-2.938
		c0.299-1.102,0.448-2.208,0.448-3.328v-3.915h-0.167c-0.971,1.602-2.286,2.788-3.944,3.552c-1.66,0.766-3.405,1.146-5.23,1.146
		c-1.94,0-3.739-0.344-5.399-1.034c-1.66-0.688-3.086-1.641-4.28-2.854c-1.194-1.211-2.125-2.646-2.796-4.309
		c-0.671-1.655-1.007-3.457-1.007-5.396c0-1.94,0.317-3.759,0.951-5.455s1.538-3.178,2.713-4.447
		c1.175-1.268,2.592-2.257,4.252-2.965c1.658-0.709,3.514-1.062,5.566-1.062c1.789,0,3.532,0.39,5.23,1.174
		c1.696,0.783,3.029,1.885,4,3.301h0.112v-3.804h5.035V239.814z M99.992,217.55c-1.344,0-2.556,0.233-3.637,0.699
		c-1.082,0.467-1.996,1.1-2.741,1.903c-0.747,0.802-1.325,1.771-1.734,2.907c-0.411,1.139-0.615,2.379-0.615,3.722
		c0,2.685,0.783,4.838,2.35,6.461c1.566,1.622,3.691,2.434,6.378,2.434c2.684,0,4.811-0.812,6.376-2.434
		c1.567-1.623,2.35-3.776,2.35-6.461c0-1.343-0.205-2.583-0.615-3.722c-0.411-1.137-0.989-2.105-1.734-2.907
		c-0.746-0.804-1.66-1.437-2.741-1.903C102.546,217.783,101.334,217.55,99.992,217.55z"/>
	<path fill="#3ca8e3" d="M149.555,210.11c-0.709-0.896-1.669-1.558-2.881-1.987c-1.212-0.427-2.359-0.642-3.44-0.642
		c-0.634,0-1.286,0.073-1.958,0.223c-0.671,0.149-1.305,0.383-1.901,0.698c-0.597,0.317-1.082,0.739-1.455,1.259
		c-0.373,0.523-0.559,1.157-0.559,1.903c0,1.194,0.448,2.106,1.342,2.741c0.896,0.634,2.022,1.174,3.384,1.622
		c1.361,0.448,2.825,0.895,4.392,1.344c1.567,0.447,3.029,1.081,4.392,1.9c1.36,0.822,2.489,1.921,3.384,3.302
		c0.894,1.379,1.341,3.225,1.341,5.538c0,2.2-0.412,4.121-1.231,5.761c-0.82,1.643-1.929,3.003-3.328,4.085
		c-1.398,1.082-3.02,1.882-4.867,2.404c-1.846,0.522-3.795,0.784-5.846,0.784c-2.573,0-4.96-0.393-7.161-1.176
		c-2.201-0.782-4.251-2.05-6.153-3.804l6.208-6.823c0.896,1.194,2.023,2.116,3.384,2.768c1.361,0.652,2.77,0.979,4.225,0.979
		c0.708,0,1.426-0.085,2.153-0.251c0.727-0.169,1.379-0.418,1.958-0.756c0.578-0.336,1.044-0.764,1.398-1.286
		c0.354-0.522,0.532-1.138,0.532-1.845c0-1.195-0.458-2.137-1.371-2.826c-0.915-0.689-2.062-1.277-3.44-1.763
		c-1.381-0.483-2.873-0.969-4.476-1.454s-3.095-1.137-4.475-1.958c-1.38-0.82-2.527-1.902-3.44-3.245
		c-0.915-1.343-1.372-3.112-1.372-5.314c0-2.126,0.42-3.99,1.259-5.595c0.839-1.602,1.958-2.944,3.356-4.027
		c1.398-1.08,3.011-1.891,4.839-2.434c1.827-0.541,3.71-0.811,5.65-0.811c2.238,0,4.4,0.317,6.489,0.952
		c2.088,0.633,3.972,1.697,5.649,3.188L149.555,210.11z"/>
	<path fill="#3ca8e3" d="M188.937,219.564h-7.385v9.062c0,0.746,0.036,1.427,0.114,2.042c0.074,0.617,0.24,1.147,0.502,1.594
		c0.262,0.45,0.662,0.794,1.204,1.034c0.538,0.244,1.257,0.367,2.152,0.367c0.447,0,1.034-0.047,1.762-0.143
		c0.728-0.092,1.276-0.309,1.65-0.643v6.992c-0.934,0.336-1.901,0.561-2.908,0.672c-1.008,0.111-1.995,0.169-2.965,0.169
		c-1.418,0-2.723-0.151-3.916-0.449c-1.193-0.297-2.237-0.773-3.133-1.426c-0.896-0.654-1.595-1.5-2.098-2.545
		c-0.504-1.043-0.757-2.313-0.757-3.805v-12.922h-5.368v-6.713h5.368v-8.057h8.392v8.057h7.385V219.564z"/>
	<path fill="#3ca8e3" d="M219.648,236.627h-0.113c-0.932,1.453-2.173,2.497-3.72,3.13c-1.548,0.636-3.182,0.954-4.895,0.954
		c-1.27,0-2.488-0.178-3.664-0.533c-1.177-0.354-2.21-0.885-3.105-1.594c-0.894-0.709-1.603-1.584-2.127-2.631
		c-0.521-1.043-0.781-2.254-0.781-3.633c0-1.568,0.287-2.891,0.866-3.974c0.58-1.081,1.361-1.976,2.35-2.685
		c0.989-0.709,2.115-1.26,3.385-1.65c1.268-0.393,2.582-0.681,3.945-0.868c1.359-0.187,2.721-0.298,4.082-0.335
		c1.361-0.036,2.62-0.057,3.777-0.057c0-1.49-0.532-2.676-1.596-3.551c-1.063-0.877-2.322-1.315-3.775-1.315
		c-1.38,0-2.64,0.289-3.775,0.866c-1.14,0.579-2.154,1.372-3.05,2.378l-4.474-4.586c1.565-1.456,3.393-2.546,5.481-3.273
		c2.089-0.726,4.25-1.091,6.487-1.091c2.462,0,4.486,0.307,6.071,0.923c1.584,0.615,2.852,1.52,3.803,2.715
		c0.951,1.193,1.614,2.656,1.987,4.389c0.372,1.734,0.559,3.74,0.559,6.016v13.817h-7.719V236.627z M217.577,228.123
		c-0.634,0-1.426,0.028-2.376,0.085c-0.951,0.055-1.865,0.213-2.742,0.475c-0.878,0.262-1.621,0.653-2.239,1.175
		c-0.613,0.522-0.922,1.249-0.922,2.182c0,1.006,0.43,1.752,1.287,2.238c0.857,0.484,1.751,0.726,2.687,0.726
		c0.817,0,1.612-0.11,2.376-0.334c0.766-0.225,1.444-0.54,2.042-0.952c0.596-0.408,1.072-0.931,1.427-1.565
		c0.354-0.636,0.532-1.381,0.532-2.238v-1.79H217.577z"/>
	<path fill="#3ca8e3" d="M260.54,219.564h-7.385v9.062c0,0.746,0.036,1.427,0.112,2.042c0.075,0.617,0.241,1.147,0.503,1.594
		c0.261,0.45,0.661,0.794,1.203,1.034c0.541,0.244,1.258,0.367,2.153,0.367c0.448,0,1.035-0.047,1.763-0.143
		c0.728-0.092,1.278-0.309,1.65-0.643v6.992c-0.934,0.336-1.901,0.561-2.909,0.672c-1.007,0.111-1.995,0.169-2.965,0.169
		c-1.419,0-2.723-0.151-3.916-0.449c-1.193-0.297-2.236-0.773-3.134-1.426c-0.895-0.654-1.593-1.5-2.099-2.545
		c-0.502-1.043-0.755-2.313-0.755-3.805v-12.922h-5.369v-6.713h5.369v-8.057h8.393v8.057h7.385V219.564z"/>
</g>
</svg>
